…
``` r
# Renaming columns based on actual column names
mr_trash_wheel <- mr_trash_wheel %>%
  rename(Dumpster = 1, Month = 2, Year = 3, Date = 4, Weight_tons = 5, 
         Volume_cubic_yards = 6, Plastic_Bottles = 7, Polystyrene = 8, 
         Cigarette_Butts = 9, Glass_Bottles = 10, Plastic_Bags = 11, 
         Wrappers = 12, Sports_Balls = 13) %>%
  filter(!is.na(Dumpster)) %>%
  mutate(Sports_Balls = as.integer(round(Sports_Balls)),
         Trash_Wheel = "Mr. Trash Wheel")%>%
  mutate(Year = as.character(Year))
mr_trash_wheel
```

    ## # A tibble: 651 × 17
    ##    Dumpster Month Year  Date                Weight_tons Volume_cubic_yards
    ##       <dbl> <chr> <chr> <dttm>                    <dbl>              <dbl>
    ##  1        1 May   2014  2014-05-16 00:00:00        4.31                 18
    ##  2        2 May   2014  2014-05-16 00:00:00        2.74                 13
    ##  3        3 May   2014  2014-05-16 00:00:00        3.45                 15
    ##  4        4 May   2014  2014-05-17 00:00:00        3.1                  15
    ##  5        5 May   2014  2014-05-17 00:00:00        4.06                 18
    ##  6        6 May   2014  2014-05-20 00:00:00        2.71                 13
    ##  7        7 May   2014  2014-05-21 00:00:00        1.91                  8
    ##  8        8 May   2014  2014-05-28 00:00:00        3.7                  16
    ##  9        9 June  2014  2014-06-05 00:00:00        2.52                 14
    ## 10       10 June  2014  2014-06-11 00:00:00        3.76                 18
    ## # ℹ 641 more rows
    ## # ℹ 11 more variables: Plastic_Bottles <dbl>, Polystyrene <dbl>,
    ## #   Cigarette_Butts <dbl>, Glass_Bottles <dbl>, Plastic_Bags <dbl>,
    ## #   Wrappers <dbl>, Sports_Balls <int>, `Homes Powered*` <dbl>, ...15 <lgl>,
    ## #   ...16 <lgl>, Trash_Wheel <chr>
…
``` r
prof_trash_wheel <- prof_trash_wheel %>%
  rename(Dumpster = 1, Month = 2, Year = 3, Date = 4, Weight_tons = 5, 
         Volume_cubic_yards = 6, Plastic_Bottles = 7, Polystyrene = 8, 
         Cigarette_Butts = 9, Glass_Bottles = 10, Plastic_Bags = 11, 
         Wrappers = 12) %>%
  filter(!is.na(Dumpster)) %>%
  mutate(Sports_Balls = 0, Trash_Wheel = "Professor Trash Wheel")%>%
  mutate(Year = as.character(Year))
prof_trash_wheel
```

    ## # A tibble: 119 × 15
    ##    Dumpster Month    Year  Date                Weight_tons Volume_cubic_yards
    ##       <dbl> <chr>    <chr> <dttm>                    <dbl>              <dbl>
    ##  1        1 January  2017  2017-01-02 00:00:00        1.79                 15
    ##  2        2 January  2017  2017-01-30 00:00:00        1.58                 15
    ##  3        3 February 2017  2017-02-26 00:00:00        2.32                 18
    ##  4        4 February 2017  2017-02-26 00:00:00        3.72                 15
    ##  5        5 February 2017  2017-02-28 00:00:00        1.45                 15
    ##  6        6 March    2017  2017-03-30 00:00:00        1.71                 15
    ##  7        7 April    2017  2017-04-01 00:00:00        1.82                 15
    ##  8        8 April    2017  2017-04-20 00:00:00        2.37                 15
    ##  9        9 May      2017  2017-05-10 00:00:00        2.64                 15
    ## 10       10 May      2017  2017-05-26 00:00:00        2.78                 15
    ## # ℹ 109 more rows
    ## # ℹ 9 more variables: Plastic_Bottles <dbl>, Polystyrene <dbl>,
    ## #   Cigarette_Butts <dbl>, Glass_Bottles <dbl>, Plastic_Bags <dbl>,
    ## #   Wrappers <dbl>, `Homes Powered*` <dbl>, Sports_Balls <dbl>,
    ## #   Trash_Wheel <chr>
…
``` r
# Renaming columns based on actual column names
gwynnda_trash_wheel <- gwynnda_trash_wheel %>%
  rename(Dumpster = 1, Month = 2, Year = 3, Date = 4, Weight_tons = 5, 
         Volume_cubic_yards = 6, Plastic_Bottles = 7, Polystyrene = 8, 
         Cigarette_Butts = 9, Plastic_Bags = 10, Wrappers = 11) %>%
  filter(!is.na(Dumpster)) %>%
  mutate(Sports_Balls = 0, Trash_Wheel = "Gwynnda Trash Wheel")%>%
  mutate(Year = as.character(Year))
gwynnda_trash_wheel
```

    ## # A tibble: 263 × 14
    ##    Dumpster Month  Year  Date                Weight_tons Volume_cubic_yards
    ##       <dbl> <chr>  <chr> <dttm>                    <dbl>              <dbl>
    ##  1        1 July   2021  2021-07-03 00:00:00        0.93                 15
    ##  2        2 July   2021  2021-07-07 00:00:00        2.26                 15
    ##  3        3 July   2021  2021-07-07 00:00:00        1.62                 15
    ##  4        4 July   2021  2021-07-16 00:00:00        1.76                 15
    ##  5        5 July   2021  2021-07-30 00:00:00        1.53                 15
    ##  6        6 August 2021  2021-08-11 00:00:00        2.06                 15
    ##  7        7 August 2021  2021-08-14 00:00:00        1.9                  15
    ##  8        8 August 2021  2021-08-16 00:00:00        2.16                 15
    ##  9        9 August 2021  2021-08-16 00:00:00        2.6                  15
    ## 10       10 August 2021  2021-08-17 00:00:00        3.21                 15
    ## # ℹ 253 more rows
    ## # ℹ 8 more variables: Plastic_Bottles <dbl>, Polystyrene <dbl>,
    ## #   Cigarette_Butts <dbl>, Plastic_Bags <dbl>, Wrappers <dbl>,
    ## #   `Homes Powered*` <dbl>, Sports_Balls <dbl>, Trash_Wheel <chr>
…
